{
	"pages": [
		{
			"id": "index",
			"parentId1": "",
			"parentId2": "",
			"parentId3": "",
			"parentId4": "",
			"bread1": "",
			"bread2": "",
			"bread3": "",
			"bread4": "",
			"bread5": "",
			"bread1_url": "/",
			"bread2_url": "",
			"bread3_url": "",
			"bread4_url": "",
			"bread5_url": "",
			"template": "index",
			"title": "",
			"description": "",
			"description_meta": "",
			"keyword": "",
			"h1": "",
			"depth": 0
		},
		{
			"id": "exercise",
			"parentId1": "",
			"parentId2": "",
			"parentId3": "",
			"parentId4": "",
			"bread1": "8020運動で健康なお口へ",
			"bread2": "",
			"bread3": "",
			"bread4": "",
			"bread5": "",
			"bread1_url": "/exercise.html",
			"bread2_url": "",
			"bread3_url": "",
			"bread4_url": "",
			"bread5_url": "",
			"template": "exercise",
			"title": "",
			"description": "",
			"description_meta": "",
			"keyword": "",
			"h1": "",
			"depth": 0
		},
		{
			"id": "info",
			"parentId1": "",
			"parentId2": "",
			"parentId3": "",
			"parentId4": "",
			"bread1": "製品について",
			"bread2": "",
			"bread3": "",
			"bread4": "",
			"bread5": "",
			"bread1_url": "/info.html",
			"bread2_url": "",
			"bread3_url": "",
			"bread4_url": "",
			"bread5_url": "",
			"template": "info",
			"title": "",
			"description": "",
			"description_meta": "",
			"keyword": "",
			"h1": "",
			"depth": 0
		},
		{
			"id": "page_01",
			"parentId1": "",
			"parentId2": "",
			"parentId3": "",
			"parentId4": "",
			"bread1": "歯槽膿漏・歯肉炎とは？",
			"bread2": "",
			"bread3": "",
			"bread4": "",
			"bread5": "",
			"bread1_url": "",
			"bread2_url": "",
			"bread3_url": "",
			"bread4_url": "",
			"bread5_url": "",
			"template": "page_01",
			"title": "",
			"description": "",
			"description_meta": "",
			"keyword": "",
			"h1": "",
			"depth": 0
		},
		{
			"id": "page_02",
			"parentId1": "",
			"parentId2": "",
			"parentId3": "",
			"parentId4": "",
			"bread1": "お客様の声",
			"bread2": "",
			"bread3": "",
			"bread4": "",
			"bread5": "",
			"bread1_url": "",
			"bread2_url": "",
			"bread3_url": "",
			"bread4_url": "",
			"bread5_url": "",
			"template": "page_02",
			"title": "",
			"description": "",
			"description_meta": "",
			"keyword": "",
			"h1": "",
			"depth": 0
		}
	]
}